animation{
  name = "flying",
  src_image = "entities/arrow.png",
  directions = {
    { x = 0, y = 4, frame_width = 16, frame_height = 8, origin_x = 8, origin_y = 4 },
    { x = 4, y = 16, frame_width = 8, frame_height = 16, origin_x = 4, origin_y = 8 },
    { x = 0, y = 36, frame_width = 16, frame_height = 8, origin_x = 8, origin_y = 4 },
    { x = 4, y = 48, frame_width = 8, frame_height = 16, origin_x = 4, origin_y = 8 },
  },
}
animation{
  name = "destroy",
  src_image = "enemies/enemy_killed_projectile.png",
  frame_delay = 50,
  directions = {
    { x = 0, y = 0, frame_width = 16, frame_height = 16, origin_x = 8, origin_y = 13, num_frames = 5 },
    { x = 0, y = 0, frame_width = 16, frame_height = 16, origin_x = 8, origin_y = 13, num_frames = 5 },
    { x = 0, y = 0, frame_width = 16, frame_height = 16, origin_x = 8, origin_y = 13, num_frames = 5 },
    { x = 0, y = 0, frame_width = 16, frame_height = 16, origin_x = 8, origin_y = 13, num_frames = 5 },
  },
}
animation{
  name = "flying_magic",
  src_image = "entities/arrow.png",
  directions = {
    { x = 0, y = 68, frame_width = 16, frame_height = 8, origin_x = 8, origin_y = 4 },
    { x = 4, y = 80, frame_width = 8, frame_height = 16, origin_x = 4, origin_y = 8 },
    { x = 0, y = 100, frame_width = 16, frame_height = 8, origin_x = 8, origin_y = 4 },
    { x = 4, y = 112, frame_width = 8, frame_height = 16, origin_x = 4, origin_y = 8 },
  },
}
animation{
  name = "reached_obstacle",
  src_image = "entities/arrow.png",
  frame_delay = 50,
  frame_to_loop_on = 7,
  directions = {
    { x = 16, y = 0, frame_width = 16, frame_height = 16, origin_x = 0, origin_y = 8, num_frames = 8 },
    { x = 16, y = 16, frame_width = 16, frame_height = 16, origin_x = 8, origin_y = 12, num_frames = 8 },
    { x = 16, y = 32, frame_width = 16, frame_height = 16, origin_x = 16, origin_y = 8, num_frames = 8 },
    { x = 16, y = 48, frame_width = 16, frame_height = 16, origin_x = 8, origin_y = 0, num_frames = 8 },
  },
}
