animation{
  name = "stopped",
  src_image = "entities/bubbles.png",
  frame_delay = 50,
  directions = {
    { x = 0, y = 0, frame_width = 8, frame_height = 16, origin_x = 4, origin_y = 13, num_frames = 8 },
    { x = 0, y = 0, frame_width = 8, frame_height = 16, origin_x = 4, origin_y = 13, num_frames = 8 },
    { x = 0, y = 0, frame_width = 8, frame_height = 16, origin_x = 4, origin_y = 13, num_frames = 8 },
    { x = 0, y = 0, frame_width = 8, frame_height = 16, origin_x = 4, origin_y = 13, num_frames = 8 },
  },
}
animation{
  name = "cluster",
  src_image = "entities/bubbles.png",
  frame_delay = 50,
  directions = {
    { x = 0, y = 32, frame_width = 16, frame_height = 32, origin_x = 8, origin_y = 29, num_frames = 8 },
    { x = 0, y = 32, frame_width = 16, frame_height = 32, origin_x = 8, origin_y = 29, num_frames = 8 },
    { x = 0, y = 32, frame_width = 16, frame_height = 32, origin_x = 8, origin_y = 29, num_frames = 8 },
    { x = 0, y = 32, frame_width = 16, frame_height = 32, origin_x = 8, origin_y = 29, num_frames = 8 },
  },
}
