animation{
  name = "slash_attack",
  src_image = "enemies/trillium_enemies/weapons/goblin_sword.png",
  frame_delay = 90,
  directions = {
    { x = 0, y = 0, frame_width = 16, frame_height = 32, origin_x = 0, origin_y = 25, num_frames = 3 },
    { x = 32, y = 32, frame_width = 32, frame_height = 16, origin_x = 16, origin_y = 29, num_frames = 3, num_columns = 1 },
    { x = 48, y = 0, frame_width = 16, frame_height = 32, origin_x = 16, origin_y = 25, num_frames = 3 },
    { x = 0, y = 32, frame_width = 32, frame_height = 16, origin_x = 16, origin_y = 5, num_frames = 3, num_columns = 1 },
  },
}
animation{
  name = "slash_windup",
  src_image = "enemies/trillium_enemies/weapons/goblin_sword.png",
  directions = {
    { x = 64, y = 32, frame_width = 16, frame_height = 16, origin_x = 8, origin_y = 13 },
    { x = 64, y = 48, frame_width = 16, frame_height = 16, origin_x = 16, origin_y = 13 },
    { x = 64, y = 64, frame_width = 16, frame_height = 16, origin_x = 8, origin_y = 13 },
    { x = 64, y = 80, frame_width = 16, frame_height = 16, origin_x = 16, origin_y = 13 },
  },
}
