animation{
  name = "stopped",
  src_image = "enemies/cybersea_enemies/shark_boss.png",
  frame_delay = 350,
  frame_to_loop_on = 0,
  directions = {
    { x = 0, y = 64, frame_width = 48, frame_height = 64, origin_x = 24, origin_y = 61, num_frames = 2 },
    { x = 0, y = 128, frame_width = 48, frame_height = 64, origin_x = 24, origin_y = 61, num_frames = 2 },
    { x = 0, y = 192, frame_width = 48, frame_height = 64, origin_x = 24, origin_y = 61, num_frames = 2 },
    { x = 0, y = 256, frame_width = 48, frame_height = 64, origin_x = 24, origin_y = 61, num_frames = 2 },
  },
}
animation{
  name = "dive_hitbox",
  src_image = "enemies/cybersea_enemies/shark_boss.png",
  frame_delay = 70,
  frame_to_loop_on = 0,
  directions = {
    { x = 256, y = 320, frame_width = 64, frame_height = 48, origin_x = 28, origin_y = 41, num_frames = 3 },
    { x = 448, y = 320, frame_width = 48, frame_height = 64, origin_x = 24, origin_y = 57, num_frames = 3 },
    { x = 256, y = 368, frame_width = 64, frame_height = 48, origin_x = 36, origin_y = 41, num_frames = 3 },
    { x = 448, y = 384, frame_width = 48, frame_height = 64, origin_x = 24, origin_y = 41, num_frames = 3 },
  },
}
animation{
  name = "dive_roll",
  src_image = "enemies/cybersea_enemies/shark_boss.png",
  frame_delay = 70,
  frame_to_loop_on = 0,
  directions = {
    { x = 0, y = 368, frame_width = 64, frame_height = 48, origin_x = 28, origin_y = 41, num_frames = 4 },
    { x = 0, y = 464, frame_width = 48, frame_height = 64, origin_x = 24, origin_y = 57, num_frames = 4, num_columns = 2 },
    { x = 0, y = 416, frame_width = 64, frame_height = 48, origin_x = 36, origin_y = 41, num_frames = 4 },
    { x = 96, y = 464, frame_width = 48, frame_height = 64, origin_x = 24, origin_y = 41, num_frames = 4, num_columns = 2 },
  },
}
animation{
  name = "finger_missile",
  src_image = "enemies/cybersea_enemies/shark_boss.png",
  frame_delay = 70,
  frame_to_loop_on = 0,
  directions = {
    { x = 192, y = 64, frame_width = 64, frame_height = 64, origin_x = 24, origin_y = 61, num_frames = 4 },
    { x = 192, y = 128, frame_width = 64, frame_height = 64, origin_x = 40, origin_y = 61, num_frames = 4 },
    { x = 192, y = 192, frame_width = 64, frame_height = 64, origin_x = 40, origin_y = 61, num_frames = 4 },
    { x = 192, y = 256, frame_width = 64, frame_height = 64, origin_x = 24, origin_y = 61, num_frames = 4 },
  },
}
animation{
  name = "finger_missile_fire",
  src_image = "enemies/cybersea_enemies/shark_boss.png",
  frame_delay = 70,
  frame_to_loop_on = 0,
  directions = {
    { x = 192, y = 64, frame_width = 64, frame_height = 64, origin_x = 24, origin_y = 61, num_frames = 4 },
    { x = 192, y = 128, frame_width = 64, frame_height = 64, origin_x = 40, origin_y = 61, num_frames = 4 },
    { x = 192, y = 192, frame_width = 64, frame_height = 64, origin_x = 40, origin_y = 61, num_frames = 4 },
    { x = 192, y = 256, frame_width = 64, frame_height = 64, origin_x = 24, origin_y = 61, num_frames = 4 },
  },
}
animation{
  name = "hurt",
  src_image = "enemies/cybersea_enemies/shark_boss.png",
  frame_delay = 70,
  frame_to_loop_on = 0,
  directions = {
    { x = 96, y = 64, frame_width = 48, frame_height = 64, origin_x = 24, origin_y = 61, num_frames = 2 },
    { x = 96, y = 128, frame_width = 48, frame_height = 64, origin_x = 24, origin_y = 61, num_frames = 2 },
    { x = 96, y = 192, frame_width = 48, frame_height = 64, origin_x = 24, origin_y = 61, num_frames = 2 },
    { x = 96, y = 256, frame_width = 48, frame_height = 64, origin_x = 24, origin_y = 61, num_frames = 2 },
  },
}
animation{
  name = "hurt_stunned",
  src_image = "enemies/cybersea_enemies/shark_boss.png",
  frame_delay = 60,
  frame_to_loop_on = 0,
  directions = {
    { x = 256, y = 464, frame_width = 48, frame_height = 48, origin_x = 24, origin_y = 45, num_frames = 2, num_columns = 1 },
    { x = 304, y = 464, frame_width = 48, frame_height = 48, origin_x = 24, origin_y = 45, num_frames = 2, num_columns = 1 },
    { x = 304, y = 464, frame_width = 48, frame_height = 48, origin_x = 24, origin_y = 45, num_frames = 2, num_columns = 1 },
    { x = 256, y = 464, frame_width = 48, frame_height = 48, origin_x = 24, origin_y = 45, num_frames = 2, num_columns = 1 },
  },
}
animation{
  name = "invisible",
  src_image = "enemies/cybersea_enemies/shark_boss.png",
  directions = {
    { x = 48, y = 112, frame_width = 8, frame_height = 8, origin_x = 4, origin_y = 5 },
    { x = 48, y = 112, frame_width = 8, frame_height = 8, origin_x = 4, origin_y = 5 },
    { x = 48, y = 112, frame_width = 8, frame_height = 8, origin_x = 4, origin_y = 5 },
    { x = 48, y = 112, frame_width = 8, frame_height = 8, origin_x = 4, origin_y = 5 },
  },
}
animation{
  name = "punch_attack",
  src_image = "enemies/cybersea_enemies/shark_boss.png",
  frame_delay = 70,
  directions = {
    { x = 448, y = 64, frame_width = 64, frame_height = 64, origin_x = 24, origin_y = 61, num_frames = 3 },
    { x = 448, y = 128, frame_width = 64, frame_height = 64, origin_x = 40, origin_y = 61, num_frames = 3 },
    { x = 448, y = 192, frame_width = 64, frame_height = 64, origin_x = 40, origin_y = 61, num_frames = 3 },
    { x = 448, y = 256, frame_width = 64, frame_height = 64, origin_x = 24, origin_y = 61, num_frames = 3 },
  },
}
animation{
  name = "punch_recovery",
  src_image = "enemies/cybersea_enemies/shark_boss.png",
  frame_delay = 100,
  frame_to_loop_on = 4,
  directions = {
    { x = 640, y = 64, frame_width = 64, frame_height = 64, origin_x = 24, origin_y = 61, num_frames = 5 },
    { x = 640, y = 128, frame_width = 64, frame_height = 64, origin_x = 40, origin_y = 61, num_frames = 5 },
    { x = 640, y = 192, frame_width = 64, frame_height = 64, origin_x = 40, origin_y = 61, num_frames = 5 },
    { x = 640, y = 256, frame_width = 64, frame_height = 64, origin_x = 24, origin_y = 61, num_frames = 5 },
  },
}
animation{
  name = "punch_windup",
  src_image = "enemies/cybersea_enemies/shark_boss.png",
  directions = {
    { x = 448, y = 64, frame_width = 48, frame_height = 64, origin_x = 24, origin_y = 61 },
    { x = 464, y = 128, frame_width = 48, frame_height = 64, origin_x = 24, origin_y = 61 },
    { x = 464, y = 192, frame_width = 48, frame_height = 64, origin_x = 24, origin_y = 61 },
    { x = 448, y = 256, frame_width = 48, frame_height = 64, origin_x = 24, origin_y = 61 },
  },
}
animation{
  name = "ram_windup",
  src_image = "enemies/cybersea_enemies/shark_boss.png",
  frame_delay = 110,
  frame_to_loop_on = 0,
  directions = {
    { x = 592, y = 320, frame_width = 48, frame_height = 64, origin_x = 24, origin_y = 61, num_frames = 2 },
    { x = 592, y = 384, frame_width = 48, frame_height = 64, origin_x = 24, origin_y = 61, num_frames = 2 },
    { x = 688, y = 320, frame_width = 48, frame_height = 64, origin_x = 24, origin_y = 61, num_frames = 2 },
    { x = 688, y = 384, frame_width = 48, frame_height = 64, origin_x = 24, origin_y = 61, num_frames = 2 },
  },
}
animation{
  name = "stunned",
  src_image = "enemies/cybersea_enemies/shark_boss.png",
  directions = {
    { x = 256, y = 416, frame_width = 48, frame_height = 48, origin_x = 24, origin_y = 45 },
    { x = 304, y = 416, frame_width = 48, frame_height = 48, origin_x = 24, origin_y = 45 },
    { x = 304, y = 416, frame_width = 48, frame_height = 48, origin_x = 24, origin_y = 45 },
    { x = 256, y = 416, frame_width = 48, frame_height = 48, origin_x = 24, origin_y = 45 },
  },
}
animation{
  name = "walking",
  src_image = "enemies/cybersea_enemies/shark_boss.png",
  frame_delay = 200,
  frame_to_loop_on = 0,
  directions = {
    { x = 0, y = 64, frame_width = 48, frame_height = 64, origin_x = 24, origin_y = 61, num_frames = 2 },
    { x = 0, y = 128, frame_width = 48, frame_height = 64, origin_x = 24, origin_y = 61, num_frames = 2 },
    { x = 0, y = 192, frame_width = 48, frame_height = 64, origin_x = 24, origin_y = 61, num_frames = 2 },
    { x = 0, y = 256, frame_width = 48, frame_height = 64, origin_x = 24, origin_y = 61, num_frames = 2 },
  },
}
