animation{
  name = "walking",
  src_image = "enemies/cybersea_enemies/uuv.png",
  frame_delay = 60,
  frame_to_loop_on = 0,
  directions = {
    { x = 96, y = 64, frame_width = 96, frame_height = 64, origin_x = 48, origin_y = 61, num_frames = 2, num_columns = 1 },
    { x = 0, y = 64, frame_width = 96, frame_height = 64, origin_x = 48, origin_y = 61, num_frames = 2, num_columns = 1 },
    { x = 192, y = 64, frame_width = 96, frame_height = 64, origin_x = 48, origin_y = 61, num_frames = 2, num_columns = 1 },
    { x = 0, y = 64, frame_width = 96, frame_height = 64, origin_x = 48, origin_y = 61, num_frames = 2, num_columns = 1 },
  },
}
animation{
  name = "hurt",
  src_image = "enemies/cybersea_enemies/uuv.png",
  frame_delay = 60,
  frame_to_loop_on = 0,
  directions = {
    { x = 0, y = 192, frame_width = 96, frame_height = 64, origin_x = 48, origin_y = 61, num_frames = 4 },
    { x = 0, y = 192, frame_width = 96, frame_height = 64, origin_x = 48, origin_y = 61, num_frames = 4 },
    { x = 0, y = 192, frame_width = 96, frame_height = 64, origin_x = 48, origin_y = 61, num_frames = 4 },
    { x = 0, y = 192, frame_width = 96, frame_height = 64, origin_x = 48, origin_y = 61, num_frames = 4 },
  },
}
