animation{
  name = "shooting",
  src_image = "entities/hero_projectiles.png",
  frame_delay = 40,
  frame_to_loop_on = 0,
  directions = {
    { x = 0, y = 80, frame_width = 32, frame_height = 8, origin_x = 16, origin_y = 5, num_frames = 3 },
  },
}
